<svg xmlns:dc="http://purl.org/dc/elements/1.1/" xmlns:cc="http://creativecommons.org/ns#" xmlns:rdf="http://www.w3.org/1999/02/22-rdf-syntax-ns#" xmlns:svg="http://www.w3.org/2000/svg" xmlns="http://www.w3.org/2000/svg" xmlns:sodipodi="http://sodipodi.sourceforge.net/DTD/sodipodi-0.dtd" xmlns:inkscape="http://www.inkscape.org/namespaces/inkscape" version="1.1" x="0px" y="0px" viewBox="0 0 1000 1000" style="enable-background:new 0 0 1000 1000;" xml:space="preserve" id="svg104" sodipodi:docname="logo_chatons_v3.svg" inkscape:version="0.92.1 r15371" inkscape:export-filename="/home/lise/Bureau/logo_chatons_v3.png" inkscape:export-xdpi="240" inkscape:export-ydpi="240">
  <metadata id="metadata110">
    <rdf:RDF>
      <cc:Work rdf:about="">
        <dc:format>image/svg+xml</dc:format>
        <dc:type rdf:resource="http://purl.org/dc/dcmitype/StillImage" />
        <dc:title></dc:title>
      </cc:Work>
    </rdf:RDF>
  </metadata>
  <defs id="defs108" />
  <sodipodi:namedview pagecolor="#ffffff" bordercolor="#666666" borderopacity="1" objecttolerance="10" gridtolerance="10" guidetolerance="10" inkscape:pageopacity="0" inkscape:pageshadow="2" inkscape:window-width="1360" inkscape:window-height="713" id="namedview106" showgrid="false" inkscape:zoom="0.6675088" inkscape:cx="738.84335" inkscape:cy="536.64652" inkscape:window-x="0" inkscape:window-y="0" inkscape:window-maximized="1" inkscape:current-layer="Calque_4" />
  <style type="text/css" id="style2">
	.st0{fill:#FECA5D;}
	.st1{fill:#CC9237;}
	.st2{fill:#FFFFFF;}
	.st3{fill:none;stroke:#CC9237;stroke-width:5;stroke-miterlimit:10;}
	.st4{fill:#E5AE37;}
	.st5{fill:none;stroke:#FECA5D;stroke-width:5;stroke-miterlimit:10;}
	.st6{fill:none;stroke:#FFFFFF;stroke-width:4;stroke-miterlimit:10;}
	.st7{fill:none;stroke:#FFFFFF;stroke-width:2;stroke-miterlimit:10;}
</style>
  <g id="Calque_4">
    <polygon class="st0" points="13.5,240.1 169.9,314.8 255.4,284 331,120.5 505.4,604.4 144.8,604.4 " id="polygon4" style="fill:#f0980c;fill-opacity:1" />
    <polygon class="st1" points="95.8,355 66.1,357.3 28.9,264 " id="polygon6" style="fill:#a46708;fill-opacity:1" />
    <polyline class="st1" points="364.1,244.3 329.6,150 340.6,262.8  " id="polyline8" style="fill:#a46708;fill-opacity:1" />
    <circle transform="matrix(0.9877,-0.1564,0.1564,0.9877,-59.4858,58.6365)" class="st2" cx="342.89999" cy="407.29999" id="ellipse10" r="55.700001" style="fill:#ffffff" />
    <ellipse transform="matrix(0.9877,-0.1564,0.1564,0.9877,-59.7545,58.7579)" class="st1" cx="343.5" cy="409.10001" rx="29.700001" ry="37.099998" id="ellipse12" style="fill:#a46708;fill-opacity:1" />
    <circle transform="matrix(0.9877,-0.1564,0.1564,0.9877,-70.4956,34.5851)" class="st2" cx="184.5" cy="465.20001" id="ellipse14" r="55.700001" style="fill:#ffffff" />
    <polygon class="st1" points="304.1,475.8 314.1,480.4 299.9,510.6 282.5,516.8 253.3,503.1 257.9,492.4 " id="polygon16" style="fill:#a46708;fill-opacity:1" />
    <path class="st2" d="m 301.7,517.3 c -7.8,6.7 32.3,20.9 71.2,5.6 15.4,-6 47.6,-29.3 46,-34.1 0,0 -25.5,24.6 -56.5,22.3 -29.8,-2.3 -47.7,-4.9 -60.7,6.2 z" id="path18" inkscape:connector-curvature="0" style="fill:#f9cc01;fill-opacity:1" />
    <ellipse transform="matrix(0.8604,-0.5096,0.5096,0.8604,-212.1454,159.5454)" class="st1" cx="185.2" cy="467" rx="29.700001" ry="37.099998" id="ellipse20" style="fill:#a46708;fill-opacity:1" />
    <path class="st2" d="m 289.3,521.8 c 10.3,0.2 -11.5,36.7 -51.3,49.7 -15.7,5.1 -55.3,7.8 -57.2,3 0,0 35.3,2.7 57.7,-18.9 21.6,-20.7 33.8,-34.1 50.8,-33.8 z" id="path22" inkscape:connector-curvature="0" style="fill:#f9cc01;fill-opacity:1" />
    <path class="st3" d="m 297.6,527.6 c 4,11 -11.4,26.6 -34.4,34.9" id="path24" inkscape:connector-curvature="0" style="fill:none;stroke:#a46708;stroke-width:5;stroke-miterlimit:10;stroke-opacity:1" />
    <path class="st3" d="m 298.4,527.3 c 4,11 25.8,13.2 48.7,4.9" id="path26" inkscape:connector-curvature="0" style="fill:none;stroke:#a46708;stroke-width:5;stroke-miterlimit:10;stroke-opacity:1" />
  </g>
  <g id="Calque_3">
    <polygon class="st4" points="655.3,143.6 729.5,292.7 814.6,324.5 974.6,258.2 847.8,605.1 471.7,602.5 " id="polygon29" style="fill:#f9cc01;fill-opacity:1" />
    <polygon class="st0" points="647,281.9 622.8,264.4 654.9,169.2 " id="polygon31" style="fill:#f0980c;fill-opacity:1" />
    <polyline class="st0" points="923.2,371.1 957.9,276.9 893.3,370  " id="polyline33" style="fill:#f0980c;fill-opacity:1" />
    <polygon class="st0" points="741.9,470.3 746.4,480.3 716.1,494.1 698.8,487.6 685.4,458.3 695.8,453.1 " id="polygon35" style="fill:#f0980c;fill-opacity:1" />
    <path class="st5" d="m 703.2,504.5 c -4.1,10.9 -25.9,12.9 -48.8,4.3" id="path37" inkscape:connector-curvature="0" style="fill:none;stroke:#f0980c;stroke-width:5;stroke-miterlimit:10;stroke-opacity:1" />
    <path class="st5" d="m 703.2,504.5 c -4.1,10.9 11.1,26.7 34,35.3" id="path39" inkscape:connector-curvature="0" style="fill:none;stroke:#f0980c;stroke-width:5;stroke-miterlimit:10;stroke-opacity:1" />
    <ellipse transform="matrix(0.1682,-0.9858,0.9858,0.1682,236.7114,1166.6821)" class="st2" cx="809.59998" cy="443.10001" rx="42.700001" ry="53.900002" id="ellipse41" style="fill:#ffffff" />
    <circle transform="matrix(0.1682,-0.9858,0.9858,0.1682,227.2142,1156.5929)" class="st0" cx="798.90002" cy="443.70001" id="ellipse43" r="33.700001" style="fill:#f0980c;fill-opacity:1" />
    <ellipse transform="matrix(0.5198,-0.8543,0.8543,0.5198,-14.1075,747.7414)" class="st2" cx="658.09998" cy="386.39999" rx="42.700001" ry="53.900002" id="ellipse45" style="fill:#ffffff" />
    <path class="st0" d="m 622.8,371.9 c 9.7,-15.9 30.4,-21 46.3,-11.3 19.2,11.7 17.6,35.9 11.3,46.3 -9.7,15.9 -30.4,21 -46.3,11.3 -16,-9.7 -21,-30.4 -11.3,-46.3 z" id="path47" inkscape:connector-curvature="0" style="fill:#f0980c;fill-opacity:1" />
    <polyline class="st0" points="819.3,389 818.3,324 883.4,323  " id="polyline49" style="fill:#f0980c;fill-opacity:1" />
    <polyline class="st0" points="754.1,324.9 819.2,324 818.2,258.9  " id="polyline51" style="fill:#f0980c;fill-opacity:1" />
    <circle transform="matrix(0.9999,-0.01505521,0.01505521,0.9999,-4.7848,12.3569)" class="st1" cx="818.29999" cy="324" id="ellipse53" r="9.8000002" style="fill:#a46708;fill-opacity:1" />
  </g>
  <g id="Calque_2">
    <polygon class="st1" points="340.3,160 463.5,283.6 554.4,283.5 680.2,167.8 680.4,609.4 335.6,607.7 " id="polygon56" style="fill:#a46708;fill-opacity:1" />
    <polygon class="st0" points="382,292.4 353.3,284.5 349.8,184.2 " id="polygon58" style="fill:#f0980c;fill-opacity:1" />
    <polyline class="st0" points="672.1,288.4 671.6,188 643.7,297.9  " id="polyline60" style="fill:#f0980c;fill-opacity:1" />
    <polygon class="st0" points="530.6,451.1 538.3,458.8 514.8,482.4 496.3,482.4 473.5,459.6 481.4,451.1 " id="polygon62" style="fill:#f0980c;fill-opacity:1" />
    <path class="st5" d="m 506.4,496.7 c 0,11.7 -19.7,21.2 -44.1,21.2" id="path64" inkscape:connector-curvature="0" style="fill:none;stroke:#f0980c;stroke-width:5;stroke-miterlimit:10;stroke-opacity:1" />
    <path class="st5" d="m 506.4,496.7 c 0,11.7 19.8,21.1 44.2,21.1" id="path66" inkscape:connector-curvature="0" style="fill:none;stroke:#f0980c;stroke-width:5;stroke-miterlimit:10;stroke-opacity:1" />
    <path class="st6" d="m 361.9,406 c 31.9,-29.7 81.8,-28 111.6,3.9" id="path68" inkscape:connector-curvature="0" style="fill:none;stroke:#ffffff;stroke-width:4;stroke-miterlimit:10" />
    <path class="st6" d="M 642.9,405.7 C 610.9,376 561,377.9 531.3,409.9" id="path70" inkscape:connector-curvature="0" style="fill:none;stroke:#ffffff;stroke-width:4;stroke-miterlimit:10" />
    <path class="st7" d="m 466.5,490.1 c 0,-10.4 -38.9,-18.8 -86.9,-18.7" id="path72" inkscape:connector-curvature="0" style="fill:none;stroke:#ffffff;stroke-width:2;stroke-miterlimit:10" />
    <path class="st7" d="m 462.2,493.4 c 0,-3.9 -44.8,-7 -100.3,-6.9" id="path74" inkscape:connector-curvature="0" style="fill:none;stroke:#ffffff;stroke-width:2;stroke-miterlimit:10" />
    <path class="st7" d="m 466.5,502.3 c 0,2.7 -37,5 -82.7,5" id="path76" inkscape:connector-curvature="0" style="fill:none;stroke:#ffffff;stroke-width:2;stroke-miterlimit:10" />
    <path class="st7" d="m 538.9,490.6 c 0,-10.4 38.9,-18.8 86.9,-18.9" id="path78" inkscape:connector-curvature="0" style="fill:none;stroke:#ffffff;stroke-width:2;stroke-miterlimit:10" />
    <path class="st7" d="m 543.1,493.9 c 0,-3.9 44.8,-7.1 100.2,-7.2" id="path80" inkscape:connector-curvature="0" style="fill:none;stroke:#ffffff;stroke-width:2;stroke-miterlimit:10" />
    <path class="st7" d="m 538.9,502.9 c 0,2.7 37,4.9 82.7,4.8" id="path82" inkscape:connector-curvature="0" style="fill:none;stroke:#ffffff;stroke-width:2;stroke-miterlimit:10" />
  </g>
  <g id="Calque_1">
    <rect x="143.7" y="602.5" class="st1" width="705.5" height="13.8" id="rect85" style="fill:#a46708;fill-opacity:1" />
    <g id="g101">
      <path class="st1" d="m 234.4,759.5 c 0.9,1.7 1.7,3.4 2.4,4.9 0.7,1.6 1.2,3.2 1.5,4.9 -3.8,1.9 -8.4,3.4 -13.7,4.5 -5.3,1.1 -10.9,1.6 -16.8,1.6 -8.3,0 -15.8,-1.4 -22.6,-4.1 -6.8,-2.7 -12.7,-6.7 -17.6,-11.9 -4.9,-5.2 -8.6,-11.7 -11.4,-19.4 -2.7,-7.7 -4.1,-16.6 -4.1,-26.6 0,-10.2 1.3,-19.4 4,-27.4 2.7,-8 6.4,-14.8 11.2,-20.3 4.8,-5.5 10.6,-9.7 17.5,-12.6 6.8,-2.9 14.5,-4.3 23,-4.3 7.1,0 13.1,0.5 17.8,1.5 4.7,1 8.2,1.9 10.3,2.6 -0.2,2 -0.5,3.8 -0.9,5.1 -0.4,1.4 -1,3 -1.8,4.9 -1.5,-0.5 -3,-0.9 -4.5,-1.4 -1.5,-0.5 -3.3,-0.9 -5.2,-1.2 -1.9,-0.3 -4.2,-0.6 -6.7,-0.9 -2.5,-0.2 -5.5,-0.3 -8.9,-0.3 -6.7,0 -12.7,1.2 -18,3.7 -5.3,2.4 -9.8,6 -13.6,10.7 -3.7,4.7 -6.6,10.3 -8.6,17.1 -2,6.7 -3.1,14.3 -3.1,22.9 0,8.8 1.1,16.4 3.4,22.9 2.3,6.5 5.4,11.9 9.4,16.1 4,4.3 8.7,7.4 14.1,9.5 5.4,2 11.2,3.1 17.4,3.1 5.3,0 10.1,-0.5 14.5,-1.5 4.5,-1.2 8.1,-2.5 11,-4.1 z" id="path87" inkscape:connector-curvature="0" style="fill:#a46708;fill-opacity:1" />
      <path class="st1" d="m 263.3,650.9 c 0.8,-0.1 1.8,-0.2 2.9,-0.3 1.1,-0.1 2.1,-0.1 3.1,-0.1 1,0 2,0 3.1,0.1 1,0.1 1.9,0.1 2.7,0.3 v 52.2 h 60 v -52.2 c 0.8,-0.1 1.7,-0.2 2.7,-0.3 1,-0.1 2,-0.1 3.1,-0.1 0.9,0 1.9,0 3.1,0.1 1.1,0.1 2.1,0.1 2.9,0.3 v 122.6 c -0.7,0.1 -1.6,0.2 -2.6,0.3 -1.1,0.1 -2.2,0.1 -3.3,0.1 -1,0 -2,0 -3.1,-0.1 -1,-0.1 -1.9,-0.1 -2.7,-0.3 v -59.7 h -60 v 59.7 c -0.8,0.1 -1.7,0.2 -2.7,0.3 -1,0.1 -2,0.1 -3.1,0.1 -1.1,0 -2.2,0 -3.3,-0.1 -1.1,-0.1 -2,-0.1 -2.6,-0.3 V 650.9 Z" id="path89" inkscape:connector-curvature="0" style="fill:#a46708;fill-opacity:1" />
      <path class="st1" d="m 407.9,650.9 c 0.8,-0.1 1.9,-0.2 3.2,-0.3 1.4,-0.1 2.6,-0.1 3.7,-0.1 1.2,0 2.5,0 3.8,0.1 1.3,0.1 2.3,0.1 3.1,0.3 l 40.7,122.6 c -0.7,0.1 -1.6,0.2 -2.9,0.3 -1.2,0.1 -2.4,0.1 -3.6,0.1 -1,0 -2.1,0 -3.2,-0.1 -1.1,-0.1 -2.1,-0.1 -2.9,-0.3 l -10.2,-31.2 h -50.2 l -9.7,31.2 c -0.9,0.1 -2,0.2 -3.1,0.3 -1.2,0.1 -2.3,0.1 -3.3,0.1 -1.1,0 -2.3,0 -3.5,-0.1 -1.2,-0.1 -2.1,-0.1 -2.8,-0.3 z m 28.5,80.5 -21.9,-68.2 -21.5,68.2 z" id="path91" inkscape:connector-curvature="0" style="fill:#a46708;fill-opacity:1" />
      <path class="st1" d="m 491.9,661.5 h -32.7 c -0.1,-0.7 -0.2,-1.5 -0.3,-2.5 -0.1,-1 -0.1,-1.9 -0.1,-2.8 0,-0.8 0,-1.7 0.1,-2.7 0.1,-1 0.1,-1.9 0.3,-2.6 h 77.2 c 0.1,0.7 0.2,1.5 0.3,2.4 0.1,0.9 0.1,1.8 0.1,2.7 0,0.8 0,1.7 -0.1,2.8 -0.1,1.1 -0.1,2 -0.3,2.6 h -32.7 v 112.1 c -0.8,0.1 -1.7,0.2 -2.7,0.3 -1,0.1 -2,0.1 -3.1,0.1 -1.1,0 -2.2,0 -3.3,-0.1 -1.1,-0.1 -2,-0.1 -2.6,-0.3 v -112 z" id="path93" inkscape:connector-curvature="0" style="fill:#a46708;fill-opacity:1" />
      <path class="st1" d="m 594.5,775.6 c -8.5,0 -15.9,-1.6 -22.2,-4.7 -6.3,-3.1 -11.6,-7.5 -15.7,-13.1 -4.1,-5.6 -7.2,-12.3 -9.3,-20.1 -2.1,-7.8 -3.1,-16.3 -3.1,-25.5 0,-9.2 1,-17.7 3.1,-25.4 2.1,-7.7 5.2,-14.4 9.3,-20 4.1,-5.6 9.4,-10 15.7,-13.1 6.3,-3.1 13.7,-4.7 22.2,-4.7 8.5,0 15.9,1.6 22.2,4.7 6.3,3.1 11.6,7.5 15.7,13.1 4.1,5.6 7.2,12.3 9.3,20 2.1,7.7 3.1,16.2 3.1,25.4 0,9.2 -1,17.7 -3.1,25.5 -2.1,7.8 -5.2,14.5 -9.3,20.1 -4.1,5.6 -9.4,10 -15.7,13.1 -6.3,3.1 -13.7,4.7 -22.2,4.7 z m 0,-10.8 c 6.6,0 12.2,-1.3 17,-3.8 4.8,-2.6 8.7,-6.2 11.9,-10.8 3.2,-4.7 5.5,-10.2 7,-16.7 1.5,-6.5 2.3,-13.6 2.3,-21.3 0,-7.7 -0.8,-14.8 -2.3,-21.3 -1.5,-6.5 -3.9,-12 -7,-16.6 -3.2,-4.6 -7.1,-8.2 -11.9,-10.7 -4.7,-2.6 -10.4,-3.8 -17,-3.8 -6.6,0 -12.2,1.3 -17,3.8 -4.8,2.6 -8.8,6.1 -11.9,10.7 -3.1,4.6 -5.4,10.1 -7,16.6 -1.5,6.5 -2.3,13.6 -2.3,21.3 0,7.7 0.8,14.8 2.3,21.3 1.5,6.5 3.8,12.1 7,16.7 3.1,4.7 7.1,8.3 11.9,10.8 4.7,2.6 10.4,3.8 17,3.8 z" id="path95" inkscape:connector-curvature="0" style="fill:#a46708;fill-opacity:1" />
      <path class="st1" d="m 672.8,650.9 c 0.8,-0.1 1.8,-0.2 3.1,-0.3 1.3,-0.1 2.4,-0.1 3.3,-0.1 0.9,0 2,0 3.2,0.1 1.2,0.1 2.3,0.1 3.1,0.3 l 58.3,102.7 V 650.9 c 0.8,-0.1 1.7,-0.2 2.6,-0.3 1,-0.1 2,-0.1 3,-0.1 0.9,0 1.9,0 3,0.1 1.1,0.1 2,0.1 2.8,0.3 v 122.6 c -0.7,0.1 -1.7,0.2 -3,0.3 -1.3,0.1 -2.5,0.1 -3.5,0.1 -0.9,0 -2,0 -3.2,-0.1 -1.2,-0.1 -2.3,-0.1 -3.1,-0.3 L 684.1,671.7 v 101.8 c -0.8,0.1 -1.7,0.2 -2.6,0.3 -1,0.1 -2,0.1 -3,0.1 -1.1,0 -2.2,0 -3.2,-0.1 -1,-0.1 -1.9,-0.1 -2.5,-0.3 z" id="path97" inkscape:connector-curvature="0" style="fill:#a46708;fill-opacity:1" />
      <path class="st1" d="m 784.9,759.9 c 1.6,0.5 3.2,1 4.9,1.5 1.7,0.6 3.6,1.1 5.7,1.5 2.1,0.5 4.4,0.9 7,1.2 2.6,0.3 5.6,0.5 9,0.5 5.4,0 10.1,-0.7 14,-2 3.9,-1.3 7.1,-3.1 9.7,-5.3 2.5,-2.2 4.4,-4.8 5.7,-7.8 1.2,-3 1.9,-6.3 1.9,-9.8 0,-3.4 -0.4,-6.3 -1.3,-8.8 -0.8,-2.4 -2.3,-4.7 -4.4,-6.7 -2.1,-2 -5,-4 -8.6,-5.9 -3.7,-1.9 -8.3,-3.9 -13.8,-6.1 -4,-1.5 -7.7,-3.1 -11.3,-4.8 -3.6,-1.7 -6.7,-3.8 -9.4,-6.2 -2.7,-2.4 -4.9,-5.4 -6.4,-8.8 -1.6,-3.4 -2.4,-7.7 -2.4,-12.8 0,-9.2 3.3,-16.7 9.9,-22.3 6.6,-5.7 16.3,-8.5 28.9,-8.5 2.5,0 5,0.1 7.5,0.3 2.5,0.2 4.9,0.5 7.1,0.9 2.2,0.3 4.2,0.7 6.1,1.2 1.9,0.5 3.4,0.9 4.5,1.2 -0.2,1.7 -0.5,3.4 -0.9,5.2 -0.4,1.8 -0.9,3.4 -1.4,5 -2.7,-0.9 -6.2,-1.7 -10.4,-2.5 -4.2,-0.7 -8.5,-1.1 -12.6,-1.1 -9.4,0 -16.1,1.9 -20.2,5.8 -4.1,3.9 -6.1,8.8 -6.1,14.7 0,3.1 0.6,5.7 1.9,8 1.2,2.3 3,4.3 5.2,6 2.2,1.7 4.8,3.3 7.9,4.7 3.1,1.4 6.3,2.8 9.8,4.2 4.7,1.9 9.2,3.9 13.3,6 4.1,2 7.7,4.4 10.6,7.2 2.9,2.7 5.3,5.9 7,9.6 1.7,3.7 2.5,8.2 2.5,13.4 0,5.9 -1,11.2 -3.1,15.8 -2.1,4.6 -5.1,8.5 -8.9,11.6 -3.8,3.1 -8.5,5.5 -14.1,7.2 -5.5,1.6 -11.8,2.5 -18.7,2.5 -6.7,0 -12.2,-0.5 -16.6,-1.4 -4.4,-1 -8.5,-2.1 -12.4,-3.3 0.2,-1.7 0.6,-3.6 1.2,-5.5 0.4,-2.2 1,-4 1.7,-5.6 z" id="path99" inkscape:connector-curvature="0" style="fill:#a46708;fill-opacity:1" />
    </g>
  </g>
</svg>